%YAML 1.1
%TAG !u! tag:unity3d.com,2011:
--- !u!114 &11400000
MonoBehaviour:
  m_ObjectHideFlags: 0
  m_CorrespondingSourceObject: {fileID: 0}
  m_PrefabInstance: {fileID: 0}
  m_PrefabAsset: {fileID: 0}
  m_GameObject: {fileID: 0}
  m_Enabled: 1
  m_EditorHideFlags: 0
  m_Script: {fileID: 11500000, guid: 4b406624c137922499f0e06da80d8758, type: 3}
  m_Name: EnemyWave
  m_EditorClassIdentifier: 
  spawnSequences:
  - alienType: 0
    amount: 1
    cooldown: 1
  - alienType: 0
    amount: 1
    cooldown: 1
  - alienType: 0
    amount: 1
    cooldown: 1
  cooldown: 1
