%YAML 1.1
%TAG !u! tag:unity3d.com,2011:
--- !u!114 &11400000
MonoBehaviour:
  m_ObjectHideFlags: 0
  m_CorrespondingSourceObject: {fileID: 0}
  m_PrefabInstance: {fileID: 0}
  m_PrefabAsset: {fileID: 0}
  m_GameObject: {fileID: 0}
  m_Enabled: 1
  m_EditorHideFlags: 0
  m_Script: {fileID: 11500000, guid: 36358a0db4c1bcc4bb67eedee59e2735, type: 3}
  m_Name: _Pulse_Cannons_Turret
  m_EditorClassIdentifier: 
  buildingName: Pulse_Cannons_Turret
  prefab: {fileID: 5262626207072961643, guid: b3277182b2e67b24faabd533f85d4d59, type: 3}
  iconUI: {fileID: 21300000, guid: 08990829c54740949b3c6f35ca1c06b2, type: 3}
  buildingType: 3
  metalCost: 0
  humanCost: 0
  buildRange: 0
  buildTime: 2
  startingHealth: 0
  maxHealth: 30
  weapon: 1
  damageType: 0
  attackRange: 8
  attackSpeed: 0.6
  attackDamage: 40
  moveSpeed: 0
