%YAML 1.1
%TAG !u! tag:unity3d.com,2011:
--- !u!162 &1
EditorUserSettings:
  m_ObjectHideFlags: 0
  serializedVersion: 4
  m_ConfigSettings:
    RecentlyUsedScenePath-0:
      value: 22424703114646680e0b0227036c7b1514021f651c2932382b201337ebee331ce7e523eea92f31352d1b
      flags: 0
    RecentlyUsedScenePath-1:
      value: 22424703114646680e0b0227036c7b1514021f65182d34222c201317e7e2213facf238e0f323
      flags: 0
    RecentlyUsedScenePath-2:
      value: 22424703114646680e0b0227036c7b1514021f651b27343c29041c23d6e5272cacf238e0f323
      flags: 0
    RecentlyUsedScenePath-3:
      value: 22424703114646680e0b0227036c7b1514021f650127223521692936f1f4740be1e238eca92f31352d1b
      flags: 0
    RecentlyUsedScenePath-4:
      value: 22424703114646680e0b0227036c7b1514021f651317153e223e3136f4e5381ce7e523eea92f31352d1b
      flags: 0
    RecentlyUsedScenePath-5:
      value: 22424703114646680e0b0227036c7b1514021f65202d303521785326ece92021
      flags: 0
    RecentlyUsedScenePath-6:
      value: 22424703114646680e0b0227036c7b1514021f65182d352401261c37d1e33136e7a923e7ee2e26
      flags: 0
    RecentlyUsedScenePath-7:
      value: 22424703114646680e0b0227036c7b1514021f650e29253b38392a3cf0ec3015e3f778fce9332b25
      flags: 0
    RecentlyUsedScenePath-8:
      value: 22424703114646680e0b0227036c7b1514021f651c3a293a282a093aeee5021edac333ebf23d7129370bfb25
      flags: 0
    RecentlyUsedScenePath-9:
      value: 22424703114646680e0b0227036c7b1514021f650b292b350b251224c6e5362de5a923e7ee2e26
      flags: 0
    UnityEditor.ShaderGraph.Blackboard:
      value: 18135939215a0a5004000b0e15254b524c030a3f2964643d120d1230e9e93a3fd6e826abbd3c3e302a07a37e0901373ae01e0008f707250d171df81a53a5405d41895ac825e0100ec20313c0d91cddccd3d0c7efcca9bd8e908fecb0f9cfddf1eff4e7a1b1eae482f0fdaee1e1928b86d888ed909c968797a7cf
      flags: 0
    UnityEditor.ShaderGraph.FloatingWindowsLayout2:
      value: 181344140043005e1a220d3b1f364b524c0c5a27130c293326201334cee5322ca0bd30e8eb293a707b0fd0180b3d0a36fc0d3d04e649500d1002ee0b5dbd1d2c27c00ad113cb1e10e41f1addc80993b9859884a69ae6d8f0d1cda9e8fbfefaf9f9dea3fdb9ade882f0ffb0e1e380cafbf2c3adc18e9cd285a2908b81ee829c8395949c9483d5888a97ddbd90bf
      flags: 0
    UnityEditor.ShaderGraph.InspectorWindow:
      value: 18135939215a0a5004000b0e15254b524c1119263f2d6a722016393ce1eb3d36e5d339f9a560393d3511ea7046333e09f7181d02f50a06241708ee0b05bd4a435f95548717f73713d91006c1c309d0effad0d2f9ddffa5828f8ceea2b8b2e3c7c6f8bffee8f2e782b2eda4e2ff9289948d88ae8696959f92f482ccce
      flags: 0
    vcSharedLogLevel:
      value: 0d5e400f0650
      flags: 0
  m_VCAutomaticAdd: 1
  m_VCDebugCom: 0
  m_VCDebugCmd: 0
  m_VCDebugOut: 0
  m_SemanticMergeMode: 2
  m_VCShowFailedCheckout: 1
  m_VCOverwriteFailedCheckoutAssets: 1
  m_VCProjectOverlayIcons: 1
  m_VCHierarchyOverlayIcons: 1
  m_VCOtherOverlayIcons: 1
  m_VCAllowAsyncUpdate: 1
